PCBNEW-LibModule-V1  
# encoding utf-8
Units mm
$INDEX
CUI_PJ-037A
$EndINDEX
$MODULE CUI_PJ-037A
Po 0 0 0 15 00000000 00000000 ~~
Li CUI_PJ-037A
Cd 
Sc 00000000
At STD
Op 0 0 0
.SolderMask 0
.SolderPaste 0
T0 1.85378 -6.77884 1.00204 1.00204 0 0.05 N V 21 "CUI_PJ-037A"
T1 2.49156 5.79021 1.00264 1.00264 0 0.05 N V 21 "VAL**"
DS 0.5 1.75 -0.5 1.75 0.0001 28
DS -0.5 1.75 -0.5 -1.75 0.0001 28
DS -0.5 -1.75 0.5 -1.75 0.0001 28
DS 0.5 -1.75 0.5 1.75 0.0001 28
DS 6.5 1.5 5.5 1.5 0.0001 28
DS 5.5 1.5 5.5 -1.5 0.0001 28
DS 5.5 -1.5 6.5 -1.5 0.0001 28
DS 6.5 -1.5 6.5 1.5 0.0001 28
DS -0.8 -4.5 13.7 -4.5 0.127 24
DS 13.7 4.5 -0.8 4.5 0.127 24
DS -0.8 4.5 -0.8 -4.5 0.127 24
DS 13.7 -4.5 13.7 4.5 0.127 21
DS 13.7 4.5 -0.8 4.5 0.127 21
DS -0.8 4.5 -0.8 2.65 0.127 21
DS -0.8 -4.5 13.7 -4.5 0.127 21
DS -0.8 -2.55 -0.8 -4.5 0.127 21
DS -1.1 -4.75 13.95 -4.75 0.05 26
DS 13.95 -4.75 13.95 4.75 0.05 26
DS 13.95 4.75 -1.1 4.75 0.05 26
DS -1.1 4.75 -1.1 2.35 0.05 26
DC -2 0 -1.8 0 0.4 21
DS -1.1 -2.25 -1.1 -4.75 0.05 26
DS -1.1 -2.25 -1.55 -2.25 0.05 26
DS -1.55 -2.25 -1.55 2.35 0.05 26
DS -1.55 2.35 -1.1 2.35 0.05 26
DS 13.7 -4.5 13.7 4.5 0.127 24
$PAD
Sh "1" O 5 2.5 0 0 900
Dr 1 0 0
At STD N 00C0FFFF
.SolderMask 0
Ne 0 ""
Po 0 0
$EndPAD
$PAD
Sh "2" O 4.5 2.25 0 0 900
Dr 1 0 0
At STD N 00C0FFFF
.SolderMask 0
Ne 0 ""
Po 6 0
$EndPAD
$EndMODULE CUI_PJ-037A
