G04 #@! TF.GenerationSoftware,KiCad,Pcbnew,5.0.0*
G04 #@! TF.CreationDate,2018-08-11T15:22:38-07:00*
G04 #@! TF.ProjectId,Web NeoPixel Controller,576562204E656F506978656C20436F6E,rev?*
G04 #@! TF.SameCoordinates,Original*
G04 #@! TF.FileFunction,Copper,L1,Top,Signal*
G04 #@! TF.FilePolarity,Positive*
%FSLAX46Y46*%
G04 Gerber Fmt 4.6, Leading zero omitted, Abs format (unit mm)*
G04 Created by KiCad (PCBNEW 5.0.0) date Sat Aug 11 15:22:38 2018*
%MOMM*%
%LPD*%
G01*
G04 APERTURE LIST*
G04 #@! TA.AperFunction,SMDPad,CuDef*
%ADD10R,1.000000X0.550000*%
G04 #@! TD*
G04 #@! TA.AperFunction,SMDPad,CuDef*
%ADD11R,1.200000X1.000000*%
G04 #@! TD*
G04 #@! TA.AperFunction,ComponentPad*
%ADD12R,2.032000X1.727200*%
G04 #@! TD*
G04 #@! TA.AperFunction,ComponentPad*
%ADD13O,2.032000X1.727200*%
G04 #@! TD*
G04 #@! TA.AperFunction,ComponentPad*
%ADD14R,1.727200X2.032000*%
G04 #@! TD*
G04 #@! TA.AperFunction,ComponentPad*
%ADD15O,1.727200X2.032000*%
G04 #@! TD*
G04 #@! TA.AperFunction,ComponentPad*
%ADD16R,2.100000X2.100000*%
G04 #@! TD*
G04 #@! TA.AperFunction,ComponentPad*
%ADD17C,2.100000*%
G04 #@! TD*
G04 #@! TA.AperFunction,SMDPad,CuDef*
%ADD18R,2.200000X1.500000*%
G04 #@! TD*
G04 #@! TA.AperFunction,SMDPad,CuDef*
%ADD19R,2.200000X3.800000*%
G04 #@! TD*
G04 #@! TA.AperFunction,ComponentPad*
%ADD20O,2.500000X5.000000*%
G04 #@! TD*
G04 #@! TA.AperFunction,ComponentPad*
%ADD21O,2.250000X4.500000*%
G04 #@! TD*
G04 #@! TA.AperFunction,SMDPad,CuDef*
%ADD22R,0.900000X1.200000*%
G04 #@! TD*
G04 #@! TA.AperFunction,Conductor*
%ADD23C,0.100000*%
G04 #@! TD*
G04 #@! TA.AperFunction,SMDPad,CuDef*
%ADD24C,0.975000*%
G04 #@! TD*
G04 #@! TA.AperFunction,ViaPad*
%ADD25C,0.600000*%
G04 #@! TD*
G04 #@! TA.AperFunction,Conductor*
%ADD26C,1.000000*%
G04 #@! TD*
G04 #@! TA.AperFunction,Conductor*
%ADD27C,0.250000*%
G04 #@! TD*
G04 #@! TA.AperFunction,Conductor*
%ADD28C,0.750000*%
G04 #@! TD*
G04 #@! TA.AperFunction,Conductor*
%ADD29C,0.700000*%
G04 #@! TD*
G04 #@! TA.AperFunction,Conductor*
%ADD30C,0.350000*%
G04 #@! TD*
G04 #@! TA.AperFunction,Conductor*
%ADD31C,0.300000*%
G04 #@! TD*
G04 #@! TA.AperFunction,Conductor*
%ADD32C,0.500000*%
G04 #@! TD*
G04 #@! TA.AperFunction,Conductor*
%ADD33C,0.254000*%
G04 #@! TD*
G04 APERTURE END LIST*
D10*
G04 #@! TO.P,U2,3*
G04 #@! TO.N,/DATA*
X168830000Y-130490000D03*
G04 #@! TO.P,U2,2*
G04 #@! TO.N,/GND*
X168830000Y-129540000D03*
G04 #@! TO.P,U2,1*
G04 #@! TO.N,/VCC*
X168830000Y-128590000D03*
G04 #@! TO.P,U2,4*
G04 #@! TO.N,/5V_DATA*
X171530000Y-130490000D03*
G04 #@! TO.P,U2,5*
G04 #@! TO.N,/VCC*
X171530000Y-129540000D03*
G04 #@! TO.P,U2,6*
G04 #@! TO.N,/+5V*
X171530000Y-128590000D03*
G04 #@! TD*
D11*
G04 #@! TO.P,MOD1,1*
G04 #@! TO.N,Net-(MOD1-Pad1)*
X204468000Y-148208000D03*
G04 #@! TO.P,MOD1,2*
G04 #@! TO.N,N/C*
X204468000Y-146208000D03*
G04 #@! TO.P,MOD1,3*
G04 #@! TO.N,Net-(MOD1-Pad3)*
X204468000Y-144208000D03*
G04 #@! TO.P,MOD1,4*
G04 #@! TO.N,N/C*
X204468000Y-142208000D03*
G04 #@! TO.P,MOD1,5*
X204468000Y-140208000D03*
G04 #@! TO.P,MOD1,6*
X204468000Y-138208000D03*
G04 #@! TO.P,MOD1,7*
X204468000Y-136208000D03*
G04 #@! TO.P,MOD1,8*
G04 #@! TO.N,/VCC*
X204468000Y-134208000D03*
G04 #@! TO.P,MOD1,9*
G04 #@! TO.N,/GND*
X188468000Y-134208000D03*
G04 #@! TO.P,MOD1,10*
G04 #@! TO.N,Net-(MOD1-Pad10)*
X188468000Y-136208000D03*
G04 #@! TO.P,MOD1,11*
G04 #@! TO.N,Net-(MOD1-Pad11)*
X188468000Y-138208000D03*
G04 #@! TO.P,MOD1,12*
G04 #@! TO.N,/IO0*
X188468000Y-140208000D03*
G04 #@! TO.P,MOD1,13*
G04 #@! TO.N,/DATA*
X188468000Y-142208000D03*
G04 #@! TO.P,MOD1,14*
G04 #@! TO.N,N/C*
X188468000Y-144208000D03*
G04 #@! TO.P,MOD1,15*
G04 #@! TO.N,Net-(MOD1-Pad15)*
X188468000Y-146208000D03*
G04 #@! TO.P,MOD1,16*
G04 #@! TO.N,Net-(MOD1-Pad16)*
X188468000Y-148208000D03*
G04 #@! TD*
D12*
G04 #@! TO.P,P1,1*
G04 #@! TO.N,/+5V*
X160528000Y-129286000D03*
D13*
G04 #@! TO.P,P1,2*
G04 #@! TO.N,/5V_DATA*
X160528000Y-131826000D03*
G04 #@! TO.P,P1,3*
G04 #@! TO.N,/GND*
X160528000Y-134366000D03*
G04 #@! TD*
D14*
G04 #@! TO.P,P2,1*
G04 #@! TO.N,/GND*
X194310000Y-123190000D03*
D15*
G04 #@! TO.P,P2,2*
G04 #@! TO.N,N/C*
X196850000Y-123190000D03*
G04 #@! TO.P,P2,3*
G04 #@! TO.N,/FTDI_5V*
X199390000Y-123190000D03*
G04 #@! TO.P,P2,4*
G04 #@! TO.N,Net-(MOD1-Pad15)*
X201930000Y-123190000D03*
G04 #@! TO.P,P2,5*
G04 #@! TO.N,Net-(MOD1-Pad16)*
X204470000Y-123190000D03*
G04 #@! TO.P,P2,6*
G04 #@! TO.N,N/C*
X207010000Y-123190000D03*
G04 #@! TD*
D16*
G04 #@! TO.P,S1,1*
G04 #@! TO.N,N/C*
X163195000Y-144780000D03*
D17*
G04 #@! TO.P,S1,4*
G04 #@! TO.N,/GND*
X168195000Y-139780000D03*
G04 #@! TO.P,S1,3*
G04 #@! TO.N,Net-(MOD1-Pad1)*
X163195000Y-139780000D03*
G04 #@! TO.P,S1,2*
G04 #@! TO.N,N/C*
X168195000Y-144780000D03*
G04 #@! TD*
D16*
G04 #@! TO.P,S2,1*
G04 #@! TO.N,N/C*
X177292000Y-144700000D03*
D17*
G04 #@! TO.P,S2,4*
G04 #@! TO.N,/GND*
X182292000Y-139700000D03*
G04 #@! TO.P,S2,3*
G04 #@! TO.N,/IO0*
X177292000Y-139700000D03*
G04 #@! TO.P,S2,2*
G04 #@! TO.N,N/C*
X182292000Y-144700000D03*
G04 #@! TD*
D18*
G04 #@! TO.P,U1,3*
G04 #@! TO.N,/+5V*
X180365000Y-126760000D03*
G04 #@! TO.P,U1,2*
G04 #@! TO.N,/VCC*
X180365000Y-124460000D03*
G04 #@! TO.P,U1,1*
G04 #@! TO.N,/GND*
X180365000Y-122160000D03*
D19*
G04 #@! TO.P,U1,4*
G04 #@! TO.N,/VCC*
X186665000Y-124460000D03*
G04 #@! TD*
D20*
G04 #@! TO.P,CON1,1*
G04 #@! TO.N,/+5V*
X167036000Y-120142000D03*
D21*
G04 #@! TO.P,CON1,2*
G04 #@! TO.N,/GND*
X161036000Y-120142000D03*
G04 #@! TD*
D22*
G04 #@! TO.P,D1,1*
G04 #@! TO.N,/+5V*
X195200000Y-118745000D03*
G04 #@! TO.P,D1,2*
G04 #@! TO.N,/FTDI_5V*
X198500000Y-118745000D03*
G04 #@! TD*
D23*
G04 #@! TO.N,/+5V*
G04 #@! TO.C,C1*
G36*
X175105142Y-126181174D02*
X175128803Y-126184684D01*
X175152007Y-126190496D01*
X175174529Y-126198554D01*
X175196153Y-126208782D01*
X175216670Y-126221079D01*
X175235883Y-126235329D01*
X175253607Y-126251393D01*
X175269671Y-126269117D01*
X175283921Y-126288330D01*
X175296218Y-126308847D01*
X175306446Y-126330471D01*
X175314504Y-126352993D01*
X175320316Y-126376197D01*
X175323826Y-126399858D01*
X175325000Y-126423750D01*
X175325000Y-126911250D01*
X175323826Y-126935142D01*
X175320316Y-126958803D01*
X175314504Y-126982007D01*
X175306446Y-127004529D01*
X175296218Y-127026153D01*
X175283921Y-127046670D01*
X175269671Y-127065883D01*
X175253607Y-127083607D01*
X175235883Y-127099671D01*
X175216670Y-127113921D01*
X175196153Y-127126218D01*
X175174529Y-127136446D01*
X175152007Y-127144504D01*
X175128803Y-127150316D01*
X175105142Y-127153826D01*
X175081250Y-127155000D01*
X174168750Y-127155000D01*
X174144858Y-127153826D01*
X174121197Y-127150316D01*
X174097993Y-127144504D01*
X174075471Y-127136446D01*
X174053847Y-127126218D01*
X174033330Y-127113921D01*
X174014117Y-127099671D01*
X173996393Y-127083607D01*
X173980329Y-127065883D01*
X173966079Y-127046670D01*
X173953782Y-127026153D01*
X173943554Y-127004529D01*
X173935496Y-126982007D01*
X173929684Y-126958803D01*
X173926174Y-126935142D01*
X173925000Y-126911250D01*
X173925000Y-126423750D01*
X173926174Y-126399858D01*
X173929684Y-126376197D01*
X173935496Y-126352993D01*
X173943554Y-126330471D01*
X173953782Y-126308847D01*
X173966079Y-126288330D01*
X173980329Y-126269117D01*
X173996393Y-126251393D01*
X174014117Y-126235329D01*
X174033330Y-126221079D01*
X174053847Y-126208782D01*
X174075471Y-126198554D01*
X174097993Y-126190496D01*
X174121197Y-126184684D01*
X174144858Y-126181174D01*
X174168750Y-126180000D01*
X175081250Y-126180000D01*
X175105142Y-126181174D01*
X175105142Y-126181174D01*
G37*
D24*
G04 #@! TD*
G04 #@! TO.P,C1,1*
G04 #@! TO.N,/+5V*
X174625000Y-126667500D03*
D23*
G04 #@! TO.N,/GND*
G04 #@! TO.C,C1*
G36*
X175105142Y-124306174D02*
X175128803Y-124309684D01*
X175152007Y-124315496D01*
X175174529Y-124323554D01*
X175196153Y-124333782D01*
X175216670Y-124346079D01*
X175235883Y-124360329D01*
X175253607Y-124376393D01*
X175269671Y-124394117D01*
X175283921Y-124413330D01*
X175296218Y-124433847D01*
X175306446Y-124455471D01*
X175314504Y-124477993D01*
X175320316Y-124501197D01*
X175323826Y-124524858D01*
X175325000Y-124548750D01*
X175325000Y-125036250D01*
X175323826Y-125060142D01*
X175320316Y-125083803D01*
X175314504Y-125107007D01*
X175306446Y-125129529D01*
X175296218Y-125151153D01*
X175283921Y-125171670D01*
X175269671Y-125190883D01*
X175253607Y-125208607D01*
X175235883Y-125224671D01*
X175216670Y-125238921D01*
X175196153Y-125251218D01*
X175174529Y-125261446D01*
X175152007Y-125269504D01*
X175128803Y-125275316D01*
X175105142Y-125278826D01*
X175081250Y-125280000D01*
X174168750Y-125280000D01*
X174144858Y-125278826D01*
X174121197Y-125275316D01*
X174097993Y-125269504D01*
X174075471Y-125261446D01*
X174053847Y-125251218D01*
X174033330Y-125238921D01*
X174014117Y-125224671D01*
X173996393Y-125208607D01*
X173980329Y-125190883D01*
X173966079Y-125171670D01*
X173953782Y-125151153D01*
X173943554Y-125129529D01*
X173935496Y-125107007D01*
X173929684Y-125083803D01*
X173926174Y-125060142D01*
X173925000Y-125036250D01*
X173925000Y-124548750D01*
X173926174Y-124524858D01*
X173929684Y-124501197D01*
X173935496Y-124477993D01*
X173943554Y-124455471D01*
X173953782Y-124433847D01*
X173966079Y-124413330D01*
X173980329Y-124394117D01*
X173996393Y-124376393D01*
X174014117Y-124360329D01*
X174033330Y-124346079D01*
X174053847Y-124333782D01*
X174075471Y-124323554D01*
X174097993Y-124315496D01*
X174121197Y-124309684D01*
X174144858Y-124306174D01*
X174168750Y-124305000D01*
X175081250Y-124305000D01*
X175105142Y-124306174D01*
X175105142Y-124306174D01*
G37*
D24*
G04 #@! TD*
G04 #@! TO.P,C1,2*
G04 #@! TO.N,/GND*
X174625000Y-124792500D03*
D23*
G04 #@! TO.N,/GND*
G04 #@! TO.C,C2*
G36*
X178888142Y-117411174D02*
X178911803Y-117414684D01*
X178935007Y-117420496D01*
X178957529Y-117428554D01*
X178979153Y-117438782D01*
X178999670Y-117451079D01*
X179018883Y-117465329D01*
X179036607Y-117481393D01*
X179052671Y-117499117D01*
X179066921Y-117518330D01*
X179079218Y-117538847D01*
X179089446Y-117560471D01*
X179097504Y-117582993D01*
X179103316Y-117606197D01*
X179106826Y-117629858D01*
X179108000Y-117653750D01*
X179108000Y-118566250D01*
X179106826Y-118590142D01*
X179103316Y-118613803D01*
X179097504Y-118637007D01*
X179089446Y-118659529D01*
X179079218Y-118681153D01*
X179066921Y-118701670D01*
X179052671Y-118720883D01*
X179036607Y-118738607D01*
X179018883Y-118754671D01*
X178999670Y-118768921D01*
X178979153Y-118781218D01*
X178957529Y-118791446D01*
X178935007Y-118799504D01*
X178911803Y-118805316D01*
X178888142Y-118808826D01*
X178864250Y-118810000D01*
X178376750Y-118810000D01*
X178352858Y-118808826D01*
X178329197Y-118805316D01*
X178305993Y-118799504D01*
X178283471Y-118791446D01*
X178261847Y-118781218D01*
X178241330Y-118768921D01*
X178222117Y-118754671D01*
X178204393Y-118738607D01*
X178188329Y-118720883D01*
X178174079Y-118701670D01*
X178161782Y-118681153D01*
X178151554Y-118659529D01*
X178143496Y-118637007D01*
X178137684Y-118613803D01*
X178134174Y-118590142D01*
X178133000Y-118566250D01*
X178133000Y-117653750D01*
X178134174Y-117629858D01*
X178137684Y-117606197D01*
X178143496Y-117582993D01*
X178151554Y-117560471D01*
X178161782Y-117538847D01*
X178174079Y-117518330D01*
X178188329Y-117499117D01*
X178204393Y-117481393D01*
X178222117Y-117465329D01*
X178241330Y-117451079D01*
X178261847Y-117438782D01*
X178283471Y-117428554D01*
X178305993Y-117420496D01*
X178329197Y-117414684D01*
X178352858Y-117411174D01*
X178376750Y-117410000D01*
X178864250Y-117410000D01*
X178888142Y-117411174D01*
X178888142Y-117411174D01*
G37*
D24*
G04 #@! TD*
G04 #@! TO.P,C2,2*
G04 #@! TO.N,/GND*
X178620500Y-118110000D03*
D23*
G04 #@! TO.N,/VCC*
G04 #@! TO.C,C2*
G36*
X180763142Y-117411174D02*
X180786803Y-117414684D01*
X180810007Y-117420496D01*
X180832529Y-117428554D01*
X180854153Y-117438782D01*
X180874670Y-117451079D01*
X180893883Y-117465329D01*
X180911607Y-117481393D01*
X180927671Y-117499117D01*
X180941921Y-117518330D01*
X180954218Y-117538847D01*
X180964446Y-117560471D01*
X180972504Y-117582993D01*
X180978316Y-117606197D01*
X180981826Y-117629858D01*
X180983000Y-117653750D01*
X180983000Y-118566250D01*
X180981826Y-118590142D01*
X180978316Y-118613803D01*
X180972504Y-118637007D01*
X180964446Y-118659529D01*
X180954218Y-118681153D01*
X180941921Y-118701670D01*
X180927671Y-118720883D01*
X180911607Y-118738607D01*
X180893883Y-118754671D01*
X180874670Y-118768921D01*
X180854153Y-118781218D01*
X180832529Y-118791446D01*
X180810007Y-118799504D01*
X180786803Y-118805316D01*
X180763142Y-118808826D01*
X180739250Y-118810000D01*
X180251750Y-118810000D01*
X180227858Y-118808826D01*
X180204197Y-118805316D01*
X180180993Y-118799504D01*
X180158471Y-118791446D01*
X180136847Y-118781218D01*
X180116330Y-118768921D01*
X180097117Y-118754671D01*
X180079393Y-118738607D01*
X180063329Y-118720883D01*
X180049079Y-118701670D01*
X180036782Y-118681153D01*
X180026554Y-118659529D01*
X180018496Y-118637007D01*
X180012684Y-118613803D01*
X180009174Y-118590142D01*
X180008000Y-118566250D01*
X180008000Y-117653750D01*
X180009174Y-117629858D01*
X180012684Y-117606197D01*
X180018496Y-117582993D01*
X180026554Y-117560471D01*
X180036782Y-117538847D01*
X180049079Y-117518330D01*
X180063329Y-117499117D01*
X180079393Y-117481393D01*
X180097117Y-117465329D01*
X180116330Y-117451079D01*
X180136847Y-117438782D01*
X180158471Y-117428554D01*
X180180993Y-117420496D01*
X180204197Y-117414684D01*
X180227858Y-117411174D01*
X180251750Y-117410000D01*
X180739250Y-117410000D01*
X180763142Y-117411174D01*
X180763142Y-117411174D01*
G37*
D24*
G04 #@! TD*
G04 #@! TO.P,C2,1*
G04 #@! TO.N,/VCC*
X180495500Y-118110000D03*
D23*
G04 #@! TO.N,/VCC*
G04 #@! TO.C,C3*
G36*
X205204142Y-128741174D02*
X205227803Y-128744684D01*
X205251007Y-128750496D01*
X205273529Y-128758554D01*
X205295153Y-128768782D01*
X205315670Y-128781079D01*
X205334883Y-128795329D01*
X205352607Y-128811393D01*
X205368671Y-128829117D01*
X205382921Y-128848330D01*
X205395218Y-128868847D01*
X205405446Y-128890471D01*
X205413504Y-128912993D01*
X205419316Y-128936197D01*
X205422826Y-128959858D01*
X205424000Y-128983750D01*
X205424000Y-129471250D01*
X205422826Y-129495142D01*
X205419316Y-129518803D01*
X205413504Y-129542007D01*
X205405446Y-129564529D01*
X205395218Y-129586153D01*
X205382921Y-129606670D01*
X205368671Y-129625883D01*
X205352607Y-129643607D01*
X205334883Y-129659671D01*
X205315670Y-129673921D01*
X205295153Y-129686218D01*
X205273529Y-129696446D01*
X205251007Y-129704504D01*
X205227803Y-129710316D01*
X205204142Y-129713826D01*
X205180250Y-129715000D01*
X204267750Y-129715000D01*
X204243858Y-129713826D01*
X204220197Y-129710316D01*
X204196993Y-129704504D01*
X204174471Y-129696446D01*
X204152847Y-129686218D01*
X204132330Y-129673921D01*
X204113117Y-129659671D01*
X204095393Y-129643607D01*
X204079329Y-129625883D01*
X204065079Y-129606670D01*
X204052782Y-129586153D01*
X204042554Y-129564529D01*
X204034496Y-129542007D01*
X204028684Y-129518803D01*
X204025174Y-129495142D01*
X204024000Y-129471250D01*
X204024000Y-128983750D01*
X204025174Y-128959858D01*
X204028684Y-128936197D01*
X204034496Y-128912993D01*
X204042554Y-128890471D01*
X204052782Y-128868847D01*
X204065079Y-128848330D01*
X204079329Y-128829117D01*
X204095393Y-128811393D01*
X204113117Y-128795329D01*
X204132330Y-128781079D01*
X204152847Y-128768782D01*
X204174471Y-128758554D01*
X204196993Y-128750496D01*
X204220197Y-128744684D01*
X204243858Y-128741174D01*
X204267750Y-128740000D01*
X205180250Y-128740000D01*
X205204142Y-128741174D01*
X205204142Y-128741174D01*
G37*
D24*
G04 #@! TD*
G04 #@! TO.P,C3,1*
G04 #@! TO.N,/VCC*
X204724000Y-129227500D03*
D23*
G04 #@! TO.N,/GND*
G04 #@! TO.C,C3*
G36*
X205204142Y-126866174D02*
X205227803Y-126869684D01*
X205251007Y-126875496D01*
X205273529Y-126883554D01*
X205295153Y-126893782D01*
X205315670Y-126906079D01*
X205334883Y-126920329D01*
X205352607Y-126936393D01*
X205368671Y-126954117D01*
X205382921Y-126973330D01*
X205395218Y-126993847D01*
X205405446Y-127015471D01*
X205413504Y-127037993D01*
X205419316Y-127061197D01*
X205422826Y-127084858D01*
X205424000Y-127108750D01*
X205424000Y-127596250D01*
X205422826Y-127620142D01*
X205419316Y-127643803D01*
X205413504Y-127667007D01*
X205405446Y-127689529D01*
X205395218Y-127711153D01*
X205382921Y-127731670D01*
X205368671Y-127750883D01*
X205352607Y-127768607D01*
X205334883Y-127784671D01*
X205315670Y-127798921D01*
X205295153Y-127811218D01*
X205273529Y-127821446D01*
X205251007Y-127829504D01*
X205227803Y-127835316D01*
X205204142Y-127838826D01*
X205180250Y-127840000D01*
X204267750Y-127840000D01*
X204243858Y-127838826D01*
X204220197Y-127835316D01*
X204196993Y-127829504D01*
X204174471Y-127821446D01*
X204152847Y-127811218D01*
X204132330Y-127798921D01*
X204113117Y-127784671D01*
X204095393Y-127768607D01*
X204079329Y-127750883D01*
X204065079Y-127731670D01*
X204052782Y-127711153D01*
X204042554Y-127689529D01*
X204034496Y-127667007D01*
X204028684Y-127643803D01*
X204025174Y-127620142D01*
X204024000Y-127596250D01*
X204024000Y-127108750D01*
X204025174Y-127084858D01*
X204028684Y-127061197D01*
X204034496Y-127037993D01*
X204042554Y-127015471D01*
X204052782Y-126993847D01*
X204065079Y-126973330D01*
X204079329Y-126954117D01*
X204095393Y-126936393D01*
X204113117Y-126920329D01*
X204132330Y-126906079D01*
X204152847Y-126893782D01*
X204174471Y-126883554D01*
X204196993Y-126875496D01*
X204220197Y-126869684D01*
X204243858Y-126866174D01*
X204267750Y-126865000D01*
X205180250Y-126865000D01*
X205204142Y-126866174D01*
X205204142Y-126866174D01*
G37*
D24*
G04 #@! TD*
G04 #@! TO.P,C3,2*
G04 #@! TO.N,/GND*
X204724000Y-127352500D03*
D23*
G04 #@! TO.N,/VCC*
G04 #@! TO.C,C4*
G36*
X165580142Y-130656174D02*
X165603803Y-130659684D01*
X165627007Y-130665496D01*
X165649529Y-130673554D01*
X165671153Y-130683782D01*
X165691670Y-130696079D01*
X165710883Y-130710329D01*
X165728607Y-130726393D01*
X165744671Y-130744117D01*
X165758921Y-130763330D01*
X165771218Y-130783847D01*
X165781446Y-130805471D01*
X165789504Y-130827993D01*
X165795316Y-130851197D01*
X165798826Y-130874858D01*
X165800000Y-130898750D01*
X165800000Y-131386250D01*
X165798826Y-131410142D01*
X165795316Y-131433803D01*
X165789504Y-131457007D01*
X165781446Y-131479529D01*
X165771218Y-131501153D01*
X165758921Y-131521670D01*
X165744671Y-131540883D01*
X165728607Y-131558607D01*
X165710883Y-131574671D01*
X165691670Y-131588921D01*
X165671153Y-131601218D01*
X165649529Y-131611446D01*
X165627007Y-131619504D01*
X165603803Y-131625316D01*
X165580142Y-131628826D01*
X165556250Y-131630000D01*
X164643750Y-131630000D01*
X164619858Y-131628826D01*
X164596197Y-131625316D01*
X164572993Y-131619504D01*
X164550471Y-131611446D01*
X164528847Y-131601218D01*
X164508330Y-131588921D01*
X164489117Y-131574671D01*
X164471393Y-131558607D01*
X164455329Y-131540883D01*
X164441079Y-131521670D01*
X164428782Y-131501153D01*
X164418554Y-131479529D01*
X164410496Y-131457007D01*
X164404684Y-131433803D01*
X164401174Y-131410142D01*
X164400000Y-131386250D01*
X164400000Y-130898750D01*
X164401174Y-130874858D01*
X164404684Y-130851197D01*
X164410496Y-130827993D01*
X164418554Y-130805471D01*
X164428782Y-130783847D01*
X164441079Y-130763330D01*
X164455329Y-130744117D01*
X164471393Y-130726393D01*
X164489117Y-130710329D01*
X164508330Y-130696079D01*
X164528847Y-130683782D01*
X164550471Y-130673554D01*
X164572993Y-130665496D01*
X164596197Y-130659684D01*
X164619858Y-130656174D01*
X164643750Y-130655000D01*
X165556250Y-130655000D01*
X165580142Y-130656174D01*
X165580142Y-130656174D01*
G37*
D24*
G04 #@! TD*
G04 #@! TO.P,C4,2*
G04 #@! TO.N,/VCC*
X165100000Y-131142500D03*
D23*
G04 #@! TO.N,/GND*
G04 #@! TO.C,C4*
G36*
X165580142Y-132531174D02*
X165603803Y-132534684D01*
X165627007Y-132540496D01*
X165649529Y-132548554D01*
X165671153Y-132558782D01*
X165691670Y-132571079D01*
X165710883Y-132585329D01*
X165728607Y-132601393D01*
X165744671Y-132619117D01*
X165758921Y-132638330D01*
X165771218Y-132658847D01*
X165781446Y-132680471D01*
X165789504Y-132702993D01*
X165795316Y-132726197D01*
X165798826Y-132749858D01*
X165800000Y-132773750D01*
X165800000Y-133261250D01*
X165798826Y-133285142D01*
X165795316Y-133308803D01*
X165789504Y-133332007D01*
X165781446Y-133354529D01*
X165771218Y-133376153D01*
X165758921Y-133396670D01*
X165744671Y-133415883D01*
X165728607Y-133433607D01*
X165710883Y-133449671D01*
X165691670Y-133463921D01*
X165671153Y-133476218D01*
X165649529Y-133486446D01*
X165627007Y-133494504D01*
X165603803Y-133500316D01*
X165580142Y-133503826D01*
X165556250Y-133505000D01*
X164643750Y-133505000D01*
X164619858Y-133503826D01*
X164596197Y-133500316D01*
X164572993Y-133494504D01*
X164550471Y-133486446D01*
X164528847Y-133476218D01*
X164508330Y-133463921D01*
X164489117Y-133449671D01*
X164471393Y-133433607D01*
X164455329Y-133415883D01*
X164441079Y-133396670D01*
X164428782Y-133376153D01*
X164418554Y-133354529D01*
X164410496Y-133332007D01*
X164404684Y-133308803D01*
X164401174Y-133285142D01*
X164400000Y-133261250D01*
X164400000Y-132773750D01*
X164401174Y-132749858D01*
X164404684Y-132726197D01*
X164410496Y-132702993D01*
X164418554Y-132680471D01*
X164428782Y-132658847D01*
X164441079Y-132638330D01*
X164455329Y-132619117D01*
X164471393Y-132601393D01*
X164489117Y-132585329D01*
X164508330Y-132571079D01*
X164528847Y-132558782D01*
X164550471Y-132548554D01*
X164572993Y-132540496D01*
X164596197Y-132534684D01*
X164619858Y-132531174D01*
X164643750Y-132530000D01*
X165556250Y-132530000D01*
X165580142Y-132531174D01*
X165580142Y-132531174D01*
G37*
D24*
G04 #@! TD*
G04 #@! TO.P,C4,1*
G04 #@! TO.N,/GND*
X165100000Y-133017500D03*
D23*
G04 #@! TO.N,/GND*
G04 #@! TO.C,C5*
G36*
X169510142Y-124396174D02*
X169533803Y-124399684D01*
X169557007Y-124405496D01*
X169579529Y-124413554D01*
X169601153Y-124423782D01*
X169621670Y-124436079D01*
X169640883Y-124450329D01*
X169658607Y-124466393D01*
X169674671Y-124484117D01*
X169688921Y-124503330D01*
X169701218Y-124523847D01*
X169711446Y-124545471D01*
X169719504Y-124567993D01*
X169725316Y-124591197D01*
X169728826Y-124614858D01*
X169730000Y-124638750D01*
X169730000Y-125551250D01*
X169728826Y-125575142D01*
X169725316Y-125598803D01*
X169719504Y-125622007D01*
X169711446Y-125644529D01*
X169701218Y-125666153D01*
X169688921Y-125686670D01*
X169674671Y-125705883D01*
X169658607Y-125723607D01*
X169640883Y-125739671D01*
X169621670Y-125753921D01*
X169601153Y-125766218D01*
X169579529Y-125776446D01*
X169557007Y-125784504D01*
X169533803Y-125790316D01*
X169510142Y-125793826D01*
X169486250Y-125795000D01*
X168998750Y-125795000D01*
X168974858Y-125793826D01*
X168951197Y-125790316D01*
X168927993Y-125784504D01*
X168905471Y-125776446D01*
X168883847Y-125766218D01*
X168863330Y-125753921D01*
X168844117Y-125739671D01*
X168826393Y-125723607D01*
X168810329Y-125705883D01*
X168796079Y-125686670D01*
X168783782Y-125666153D01*
X168773554Y-125644529D01*
X168765496Y-125622007D01*
X168759684Y-125598803D01*
X168756174Y-125575142D01*
X168755000Y-125551250D01*
X168755000Y-124638750D01*
X168756174Y-124614858D01*
X168759684Y-124591197D01*
X168765496Y-124567993D01*
X168773554Y-124545471D01*
X168783782Y-124523847D01*
X168796079Y-124503330D01*
X168810329Y-124484117D01*
X168826393Y-124466393D01*
X168844117Y-124450329D01*
X168863330Y-124436079D01*
X168883847Y-124423782D01*
X168905471Y-124413554D01*
X168927993Y-124405496D01*
X168951197Y-124399684D01*
X168974858Y-124396174D01*
X168998750Y-124395000D01*
X169486250Y-124395000D01*
X169510142Y-124396174D01*
X169510142Y-124396174D01*
G37*
D24*
G04 #@! TD*
G04 #@! TO.P,C5,1*
G04 #@! TO.N,/GND*
X169242500Y-125095000D03*
D23*
G04 #@! TO.N,/+5V*
G04 #@! TO.C,C5*
G36*
X171385142Y-124396174D02*
X171408803Y-124399684D01*
X171432007Y-124405496D01*
X171454529Y-124413554D01*
X171476153Y-124423782D01*
X171496670Y-124436079D01*
X171515883Y-124450329D01*
X171533607Y-124466393D01*
X171549671Y-124484117D01*
X171563921Y-124503330D01*
X171576218Y-124523847D01*
X171586446Y-124545471D01*
X171594504Y-124567993D01*
X171600316Y-124591197D01*
X171603826Y-124614858D01*
X171605000Y-124638750D01*
X171605000Y-125551250D01*
X171603826Y-125575142D01*
X171600316Y-125598803D01*
X171594504Y-125622007D01*
X171586446Y-125644529D01*
X171576218Y-125666153D01*
X171563921Y-125686670D01*
X171549671Y-125705883D01*
X171533607Y-125723607D01*
X171515883Y-125739671D01*
X171496670Y-125753921D01*
X171476153Y-125766218D01*
X171454529Y-125776446D01*
X171432007Y-125784504D01*
X171408803Y-125790316D01*
X171385142Y-125793826D01*
X171361250Y-125795000D01*
X170873750Y-125795000D01*
X170849858Y-125793826D01*
X170826197Y-125790316D01*
X170802993Y-125784504D01*
X170780471Y-125776446D01*
X170758847Y-125766218D01*
X170738330Y-125753921D01*
X170719117Y-125739671D01*
X170701393Y-125723607D01*
X170685329Y-125705883D01*
X170671079Y-125686670D01*
X170658782Y-125666153D01*
X170648554Y-125644529D01*
X170640496Y-125622007D01*
X170634684Y-125598803D01*
X170631174Y-125575142D01*
X170630000Y-125551250D01*
X170630000Y-124638750D01*
X170631174Y-124614858D01*
X170634684Y-124591197D01*
X170640496Y-124567993D01*
X170648554Y-124545471D01*
X170658782Y-124523847D01*
X170671079Y-124503330D01*
X170685329Y-124484117D01*
X170701393Y-124466393D01*
X170719117Y-124450329D01*
X170738330Y-124436079D01*
X170758847Y-124423782D01*
X170780471Y-124413554D01*
X170802993Y-124405496D01*
X170826197Y-124399684D01*
X170849858Y-124396174D01*
X170873750Y-124395000D01*
X171361250Y-124395000D01*
X171385142Y-124396174D01*
X171385142Y-124396174D01*
G37*
D24*
G04 #@! TD*
G04 #@! TO.P,C5,2*
G04 #@! TO.N,/+5V*
X171117500Y-125095000D03*
D23*
G04 #@! TO.N,Net-(MOD1-Pad1)*
G04 #@! TO.C,R1*
G36*
X207998142Y-144295174D02*
X208021803Y-144298684D01*
X208045007Y-144304496D01*
X208067529Y-144312554D01*
X208089153Y-144322782D01*
X208109670Y-144335079D01*
X208128883Y-144349329D01*
X208146607Y-144365393D01*
X208162671Y-144383117D01*
X208176921Y-144402330D01*
X208189218Y-144422847D01*
X208199446Y-144444471D01*
X208207504Y-144466993D01*
X208213316Y-144490197D01*
X208216826Y-144513858D01*
X208218000Y-144537750D01*
X208218000Y-145025250D01*
X208216826Y-145049142D01*
X208213316Y-145072803D01*
X208207504Y-145096007D01*
X208199446Y-145118529D01*
X208189218Y-145140153D01*
X208176921Y-145160670D01*
X208162671Y-145179883D01*
X208146607Y-145197607D01*
X208128883Y-145213671D01*
X208109670Y-145227921D01*
X208089153Y-145240218D01*
X208067529Y-145250446D01*
X208045007Y-145258504D01*
X208021803Y-145264316D01*
X207998142Y-145267826D01*
X207974250Y-145269000D01*
X207061750Y-145269000D01*
X207037858Y-145267826D01*
X207014197Y-145264316D01*
X206990993Y-145258504D01*
X206968471Y-145250446D01*
X206946847Y-145240218D01*
X206926330Y-145227921D01*
X206907117Y-145213671D01*
X206889393Y-145197607D01*
X206873329Y-145179883D01*
X206859079Y-145160670D01*
X206846782Y-145140153D01*
X206836554Y-145118529D01*
X206828496Y-145096007D01*
X206822684Y-145072803D01*
X206819174Y-145049142D01*
X206818000Y-145025250D01*
X206818000Y-144537750D01*
X206819174Y-144513858D01*
X206822684Y-144490197D01*
X206828496Y-144466993D01*
X206836554Y-144444471D01*
X206846782Y-144422847D01*
X206859079Y-144402330D01*
X206873329Y-144383117D01*
X206889393Y-144365393D01*
X206907117Y-144349329D01*
X206926330Y-144335079D01*
X206946847Y-144322782D01*
X206968471Y-144312554D01*
X206990993Y-144304496D01*
X207014197Y-144298684D01*
X207037858Y-144295174D01*
X207061750Y-144294000D01*
X207974250Y-144294000D01*
X207998142Y-144295174D01*
X207998142Y-144295174D01*
G37*
D24*
G04 #@! TD*
G04 #@! TO.P,R1,1*
G04 #@! TO.N,Net-(MOD1-Pad1)*
X207518000Y-144781500D03*
D23*
G04 #@! TO.N,/VCC*
G04 #@! TO.C,R1*
G36*
X207998142Y-142420174D02*
X208021803Y-142423684D01*
X208045007Y-142429496D01*
X208067529Y-142437554D01*
X208089153Y-142447782D01*
X208109670Y-142460079D01*
X208128883Y-142474329D01*
X208146607Y-142490393D01*
X208162671Y-142508117D01*
X208176921Y-142527330D01*
X208189218Y-142547847D01*
X208199446Y-142569471D01*
X208207504Y-142591993D01*
X208213316Y-142615197D01*
X208216826Y-142638858D01*
X208218000Y-142662750D01*
X208218000Y-143150250D01*
X208216826Y-143174142D01*
X208213316Y-143197803D01*
X208207504Y-143221007D01*
X208199446Y-143243529D01*
X208189218Y-143265153D01*
X208176921Y-143285670D01*
X208162671Y-143304883D01*
X208146607Y-143322607D01*
X208128883Y-143338671D01*
X208109670Y-143352921D01*
X208089153Y-143365218D01*
X208067529Y-143375446D01*
X208045007Y-143383504D01*
X208021803Y-143389316D01*
X207998142Y-143392826D01*
X207974250Y-143394000D01*
X207061750Y-143394000D01*
X207037858Y-143392826D01*
X207014197Y-143389316D01*
X206990993Y-143383504D01*
X206968471Y-143375446D01*
X206946847Y-143365218D01*
X206926330Y-143352921D01*
X206907117Y-143338671D01*
X206889393Y-143322607D01*
X206873329Y-143304883D01*
X206859079Y-143285670D01*
X206846782Y-143265153D01*
X206836554Y-143243529D01*
X206828496Y-143221007D01*
X206822684Y-143197803D01*
X206819174Y-143174142D01*
X206818000Y-143150250D01*
X206818000Y-142662750D01*
X206819174Y-142638858D01*
X206822684Y-142615197D01*
X206828496Y-142591993D01*
X206836554Y-142569471D01*
X206846782Y-142547847D01*
X206859079Y-142527330D01*
X206873329Y-142508117D01*
X206889393Y-142490393D01*
X206907117Y-142474329D01*
X206926330Y-142460079D01*
X206946847Y-142447782D01*
X206968471Y-142437554D01*
X206990993Y-142429496D01*
X207014197Y-142423684D01*
X207037858Y-142420174D01*
X207061750Y-142419000D01*
X207974250Y-142419000D01*
X207998142Y-142420174D01*
X207998142Y-142420174D01*
G37*
D24*
G04 #@! TD*
G04 #@! TO.P,R1,2*
G04 #@! TO.N,/VCC*
X207518000Y-142906500D03*
D23*
G04 #@! TO.N,/VCC*
G04 #@! TO.C,R2*
G36*
X207998142Y-136324174D02*
X208021803Y-136327684D01*
X208045007Y-136333496D01*
X208067529Y-136341554D01*
X208089153Y-136351782D01*
X208109670Y-136364079D01*
X208128883Y-136378329D01*
X208146607Y-136394393D01*
X208162671Y-136412117D01*
X208176921Y-136431330D01*
X208189218Y-136451847D01*
X208199446Y-136473471D01*
X208207504Y-136495993D01*
X208213316Y-136519197D01*
X208216826Y-136542858D01*
X208218000Y-136566750D01*
X208218000Y-137054250D01*
X208216826Y-137078142D01*
X208213316Y-137101803D01*
X208207504Y-137125007D01*
X208199446Y-137147529D01*
X208189218Y-137169153D01*
X208176921Y-137189670D01*
X208162671Y-137208883D01*
X208146607Y-137226607D01*
X208128883Y-137242671D01*
X208109670Y-137256921D01*
X208089153Y-137269218D01*
X208067529Y-137279446D01*
X208045007Y-137287504D01*
X208021803Y-137293316D01*
X207998142Y-137296826D01*
X207974250Y-137298000D01*
X207061750Y-137298000D01*
X207037858Y-137296826D01*
X207014197Y-137293316D01*
X206990993Y-137287504D01*
X206968471Y-137279446D01*
X206946847Y-137269218D01*
X206926330Y-137256921D01*
X206907117Y-137242671D01*
X206889393Y-137226607D01*
X206873329Y-137208883D01*
X206859079Y-137189670D01*
X206846782Y-137169153D01*
X206836554Y-137147529D01*
X206828496Y-137125007D01*
X206822684Y-137101803D01*
X206819174Y-137078142D01*
X206818000Y-137054250D01*
X206818000Y-136566750D01*
X206819174Y-136542858D01*
X206822684Y-136519197D01*
X206828496Y-136495993D01*
X206836554Y-136473471D01*
X206846782Y-136451847D01*
X206859079Y-136431330D01*
X206873329Y-136412117D01*
X206889393Y-136394393D01*
X206907117Y-136378329D01*
X206926330Y-136364079D01*
X206946847Y-136351782D01*
X206968471Y-136341554D01*
X206990993Y-136333496D01*
X207014197Y-136327684D01*
X207037858Y-136324174D01*
X207061750Y-136323000D01*
X207974250Y-136323000D01*
X207998142Y-136324174D01*
X207998142Y-136324174D01*
G37*
D24*
G04 #@! TD*
G04 #@! TO.P,R2,2*
G04 #@! TO.N,/VCC*
X207518000Y-136810500D03*
D23*
G04 #@! TO.N,Net-(MOD1-Pad3)*
G04 #@! TO.C,R2*
G36*
X207998142Y-138199174D02*
X208021803Y-138202684D01*
X208045007Y-138208496D01*
X208067529Y-138216554D01*
X208089153Y-138226782D01*
X208109670Y-138239079D01*
X208128883Y-138253329D01*
X208146607Y-138269393D01*
X208162671Y-138287117D01*
X208176921Y-138306330D01*
X208189218Y-138326847D01*
X208199446Y-138348471D01*
X208207504Y-138370993D01*
X208213316Y-138394197D01*
X208216826Y-138417858D01*
X208218000Y-138441750D01*
X208218000Y-138929250D01*
X208216826Y-138953142D01*
X208213316Y-138976803D01*
X208207504Y-139000007D01*
X208199446Y-139022529D01*
X208189218Y-139044153D01*
X208176921Y-139064670D01*
X208162671Y-139083883D01*
X208146607Y-139101607D01*
X208128883Y-139117671D01*
X208109670Y-139131921D01*
X208089153Y-139144218D01*
X208067529Y-139154446D01*
X208045007Y-139162504D01*
X208021803Y-139168316D01*
X207998142Y-139171826D01*
X207974250Y-139173000D01*
X207061750Y-139173000D01*
X207037858Y-139171826D01*
X207014197Y-139168316D01*
X206990993Y-139162504D01*
X206968471Y-139154446D01*
X206946847Y-139144218D01*
X206926330Y-139131921D01*
X206907117Y-139117671D01*
X206889393Y-139101607D01*
X206873329Y-139083883D01*
X206859079Y-139064670D01*
X206846782Y-139044153D01*
X206836554Y-139022529D01*
X206828496Y-139000007D01*
X206822684Y-138976803D01*
X206819174Y-138953142D01*
X206818000Y-138929250D01*
X206818000Y-138441750D01*
X206819174Y-138417858D01*
X206822684Y-138394197D01*
X206828496Y-138370993D01*
X206836554Y-138348471D01*
X206846782Y-138326847D01*
X206859079Y-138306330D01*
X206873329Y-138287117D01*
X206889393Y-138269393D01*
X206907117Y-138253329D01*
X206926330Y-138239079D01*
X206946847Y-138226782D01*
X206968471Y-138216554D01*
X206990993Y-138208496D01*
X207014197Y-138202684D01*
X207037858Y-138199174D01*
X207061750Y-138198000D01*
X207974250Y-138198000D01*
X207998142Y-138199174D01*
X207998142Y-138199174D01*
G37*
D24*
G04 #@! TD*
G04 #@! TO.P,R2,1*
G04 #@! TO.N,Net-(MOD1-Pad3)*
X207518000Y-138685500D03*
D23*
G04 #@! TO.N,/VCC*
G04 #@! TO.C,R3*
G36*
X198600142Y-126211174D02*
X198623803Y-126214684D01*
X198647007Y-126220496D01*
X198669529Y-126228554D01*
X198691153Y-126238782D01*
X198711670Y-126251079D01*
X198730883Y-126265329D01*
X198748607Y-126281393D01*
X198764671Y-126299117D01*
X198778921Y-126318330D01*
X198791218Y-126338847D01*
X198801446Y-126360471D01*
X198809504Y-126382993D01*
X198815316Y-126406197D01*
X198818826Y-126429858D01*
X198820000Y-126453750D01*
X198820000Y-126941250D01*
X198818826Y-126965142D01*
X198815316Y-126988803D01*
X198809504Y-127012007D01*
X198801446Y-127034529D01*
X198791218Y-127056153D01*
X198778921Y-127076670D01*
X198764671Y-127095883D01*
X198748607Y-127113607D01*
X198730883Y-127129671D01*
X198711670Y-127143921D01*
X198691153Y-127156218D01*
X198669529Y-127166446D01*
X198647007Y-127174504D01*
X198623803Y-127180316D01*
X198600142Y-127183826D01*
X198576250Y-127185000D01*
X197663750Y-127185000D01*
X197639858Y-127183826D01*
X197616197Y-127180316D01*
X197592993Y-127174504D01*
X197570471Y-127166446D01*
X197548847Y-127156218D01*
X197528330Y-127143921D01*
X197509117Y-127129671D01*
X197491393Y-127113607D01*
X197475329Y-127095883D01*
X197461079Y-127076670D01*
X197448782Y-127056153D01*
X197438554Y-127034529D01*
X197430496Y-127012007D01*
X197424684Y-126988803D01*
X197421174Y-126965142D01*
X197420000Y-126941250D01*
X197420000Y-126453750D01*
X197421174Y-126429858D01*
X197424684Y-126406197D01*
X197430496Y-126382993D01*
X197438554Y-126360471D01*
X197448782Y-126338847D01*
X197461079Y-126318330D01*
X197475329Y-126299117D01*
X197491393Y-126281393D01*
X197509117Y-126265329D01*
X197528330Y-126251079D01*
X197548847Y-126238782D01*
X197570471Y-126228554D01*
X197592993Y-126220496D01*
X197616197Y-126214684D01*
X197639858Y-126211174D01*
X197663750Y-126210000D01*
X198576250Y-126210000D01*
X198600142Y-126211174D01*
X198600142Y-126211174D01*
G37*
D24*
G04 #@! TD*
G04 #@! TO.P,R3,2*
G04 #@! TO.N,/VCC*
X198120000Y-126697500D03*
D23*
G04 #@! TO.N,Net-(MOD1-Pad11)*
G04 #@! TO.C,R3*
G36*
X198600142Y-128086174D02*
X198623803Y-128089684D01*
X198647007Y-128095496D01*
X198669529Y-128103554D01*
X198691153Y-128113782D01*
X198711670Y-128126079D01*
X198730883Y-128140329D01*
X198748607Y-128156393D01*
X198764671Y-128174117D01*
X198778921Y-128193330D01*
X198791218Y-128213847D01*
X198801446Y-128235471D01*
X198809504Y-128257993D01*
X198815316Y-128281197D01*
X198818826Y-128304858D01*
X198820000Y-128328750D01*
X198820000Y-128816250D01*
X198818826Y-128840142D01*
X198815316Y-128863803D01*
X198809504Y-128887007D01*
X198801446Y-128909529D01*
X198791218Y-128931153D01*
X198778921Y-128951670D01*
X198764671Y-128970883D01*
X198748607Y-128988607D01*
X198730883Y-129004671D01*
X198711670Y-129018921D01*
X198691153Y-129031218D01*
X198669529Y-129041446D01*
X198647007Y-129049504D01*
X198623803Y-129055316D01*
X198600142Y-129058826D01*
X198576250Y-129060000D01*
X197663750Y-129060000D01*
X197639858Y-129058826D01*
X197616197Y-129055316D01*
X197592993Y-129049504D01*
X197570471Y-129041446D01*
X197548847Y-129031218D01*
X197528330Y-129018921D01*
X197509117Y-129004671D01*
X197491393Y-128988607D01*
X197475329Y-128970883D01*
X197461079Y-128951670D01*
X197448782Y-128931153D01*
X197438554Y-128909529D01*
X197430496Y-128887007D01*
X197424684Y-128863803D01*
X197421174Y-128840142D01*
X197420000Y-128816250D01*
X197420000Y-128328750D01*
X197421174Y-128304858D01*
X197424684Y-128281197D01*
X197430496Y-128257993D01*
X197438554Y-128235471D01*
X197448782Y-128213847D01*
X197461079Y-128193330D01*
X197475329Y-128174117D01*
X197491393Y-128156393D01*
X197509117Y-128140329D01*
X197528330Y-128126079D01*
X197548847Y-128113782D01*
X197570471Y-128103554D01*
X197592993Y-128095496D01*
X197616197Y-128089684D01*
X197639858Y-128086174D01*
X197663750Y-128085000D01*
X198576250Y-128085000D01*
X198600142Y-128086174D01*
X198600142Y-128086174D01*
G37*
D24*
G04 #@! TD*
G04 #@! TO.P,R3,1*
G04 #@! TO.N,Net-(MOD1-Pad11)*
X198120000Y-128572500D03*
D23*
G04 #@! TO.N,/IO0*
G04 #@! TO.C,R4*
G36*
X186408142Y-136007174D02*
X186431803Y-136010684D01*
X186455007Y-136016496D01*
X186477529Y-136024554D01*
X186499153Y-136034782D01*
X186519670Y-136047079D01*
X186538883Y-136061329D01*
X186556607Y-136077393D01*
X186572671Y-136095117D01*
X186586921Y-136114330D01*
X186599218Y-136134847D01*
X186609446Y-136156471D01*
X186617504Y-136178993D01*
X186623316Y-136202197D01*
X186626826Y-136225858D01*
X186628000Y-136249750D01*
X186628000Y-136737250D01*
X186626826Y-136761142D01*
X186623316Y-136784803D01*
X186617504Y-136808007D01*
X186609446Y-136830529D01*
X186599218Y-136852153D01*
X186586921Y-136872670D01*
X186572671Y-136891883D01*
X186556607Y-136909607D01*
X186538883Y-136925671D01*
X186519670Y-136939921D01*
X186499153Y-136952218D01*
X186477529Y-136962446D01*
X186455007Y-136970504D01*
X186431803Y-136976316D01*
X186408142Y-136979826D01*
X186384250Y-136981000D01*
X185471750Y-136981000D01*
X185447858Y-136979826D01*
X185424197Y-136976316D01*
X185400993Y-136970504D01*
X185378471Y-136962446D01*
X185356847Y-136952218D01*
X185336330Y-136939921D01*
X185317117Y-136925671D01*
X185299393Y-136909607D01*
X185283329Y-136891883D01*
X185269079Y-136872670D01*
X185256782Y-136852153D01*
X185246554Y-136830529D01*
X185238496Y-136808007D01*
X185232684Y-136784803D01*
X185229174Y-136761142D01*
X185228000Y-136737250D01*
X185228000Y-136249750D01*
X185229174Y-136225858D01*
X185232684Y-136202197D01*
X185238496Y-136178993D01*
X185246554Y-136156471D01*
X185256782Y-136134847D01*
X185269079Y-136114330D01*
X185283329Y-136095117D01*
X185299393Y-136077393D01*
X185317117Y-136061329D01*
X185336330Y-136047079D01*
X185356847Y-136034782D01*
X185378471Y-136024554D01*
X185400993Y-136016496D01*
X185424197Y-136010684D01*
X185447858Y-136007174D01*
X185471750Y-136006000D01*
X186384250Y-136006000D01*
X186408142Y-136007174D01*
X186408142Y-136007174D01*
G37*
D24*
G04 #@! TD*
G04 #@! TO.P,R4,1*
G04 #@! TO.N,/IO0*
X185928000Y-136493500D03*
D23*
G04 #@! TO.N,/VCC*
G04 #@! TO.C,R4*
G36*
X186408142Y-134132174D02*
X186431803Y-134135684D01*
X186455007Y-134141496D01*
X186477529Y-134149554D01*
X186499153Y-134159782D01*
X186519670Y-134172079D01*
X186538883Y-134186329D01*
X186556607Y-134202393D01*
X186572671Y-134220117D01*
X186586921Y-134239330D01*
X186599218Y-134259847D01*
X186609446Y-134281471D01*
X186617504Y-134303993D01*
X186623316Y-134327197D01*
X186626826Y-134350858D01*
X186628000Y-134374750D01*
X186628000Y-134862250D01*
X186626826Y-134886142D01*
X186623316Y-134909803D01*
X186617504Y-134933007D01*
X186609446Y-134955529D01*
X186599218Y-134977153D01*
X186586921Y-134997670D01*
X186572671Y-135016883D01*
X186556607Y-135034607D01*
X186538883Y-135050671D01*
X186519670Y-135064921D01*
X186499153Y-135077218D01*
X186477529Y-135087446D01*
X186455007Y-135095504D01*
X186431803Y-135101316D01*
X186408142Y-135104826D01*
X186384250Y-135106000D01*
X185471750Y-135106000D01*
X185447858Y-135104826D01*
X185424197Y-135101316D01*
X185400993Y-135095504D01*
X185378471Y-135087446D01*
X185356847Y-135077218D01*
X185336330Y-135064921D01*
X185317117Y-135050671D01*
X185299393Y-135034607D01*
X185283329Y-135016883D01*
X185269079Y-134997670D01*
X185256782Y-134977153D01*
X185246554Y-134955529D01*
X185238496Y-134933007D01*
X185232684Y-134909803D01*
X185229174Y-134886142D01*
X185228000Y-134862250D01*
X185228000Y-134374750D01*
X185229174Y-134350858D01*
X185232684Y-134327197D01*
X185238496Y-134303993D01*
X185246554Y-134281471D01*
X185256782Y-134259847D01*
X185269079Y-134239330D01*
X185283329Y-134220117D01*
X185299393Y-134202393D01*
X185317117Y-134186329D01*
X185336330Y-134172079D01*
X185356847Y-134159782D01*
X185378471Y-134149554D01*
X185400993Y-134141496D01*
X185424197Y-134135684D01*
X185447858Y-134132174D01*
X185471750Y-134131000D01*
X186384250Y-134131000D01*
X186408142Y-134132174D01*
X186408142Y-134132174D01*
G37*
D24*
G04 #@! TD*
G04 #@! TO.P,R4,2*
G04 #@! TO.N,/VCC*
X185928000Y-134618500D03*
D23*
G04 #@! TO.N,/GND*
G04 #@! TO.C,R5*
G36*
X195425142Y-127020174D02*
X195448803Y-127023684D01*
X195472007Y-127029496D01*
X195494529Y-127037554D01*
X195516153Y-127047782D01*
X195536670Y-127060079D01*
X195555883Y-127074329D01*
X195573607Y-127090393D01*
X195589671Y-127108117D01*
X195603921Y-127127330D01*
X195616218Y-127147847D01*
X195626446Y-127169471D01*
X195634504Y-127191993D01*
X195640316Y-127215197D01*
X195643826Y-127238858D01*
X195645000Y-127262750D01*
X195645000Y-127750250D01*
X195643826Y-127774142D01*
X195640316Y-127797803D01*
X195634504Y-127821007D01*
X195626446Y-127843529D01*
X195616218Y-127865153D01*
X195603921Y-127885670D01*
X195589671Y-127904883D01*
X195573607Y-127922607D01*
X195555883Y-127938671D01*
X195536670Y-127952921D01*
X195516153Y-127965218D01*
X195494529Y-127975446D01*
X195472007Y-127983504D01*
X195448803Y-127989316D01*
X195425142Y-127992826D01*
X195401250Y-127994000D01*
X194488750Y-127994000D01*
X194464858Y-127992826D01*
X194441197Y-127989316D01*
X194417993Y-127983504D01*
X194395471Y-127975446D01*
X194373847Y-127965218D01*
X194353330Y-127952921D01*
X194334117Y-127938671D01*
X194316393Y-127922607D01*
X194300329Y-127904883D01*
X194286079Y-127885670D01*
X194273782Y-127865153D01*
X194263554Y-127843529D01*
X194255496Y-127821007D01*
X194249684Y-127797803D01*
X194246174Y-127774142D01*
X194245000Y-127750250D01*
X194245000Y-127262750D01*
X194246174Y-127238858D01*
X194249684Y-127215197D01*
X194255496Y-127191993D01*
X194263554Y-127169471D01*
X194273782Y-127147847D01*
X194286079Y-127127330D01*
X194300329Y-127108117D01*
X194316393Y-127090393D01*
X194334117Y-127074329D01*
X194353330Y-127060079D01*
X194373847Y-127047782D01*
X194395471Y-127037554D01*
X194417993Y-127029496D01*
X194441197Y-127023684D01*
X194464858Y-127020174D01*
X194488750Y-127019000D01*
X195401250Y-127019000D01*
X195425142Y-127020174D01*
X195425142Y-127020174D01*
G37*
D24*
G04 #@! TD*
G04 #@! TO.P,R5,1*
G04 #@! TO.N,/GND*
X194945000Y-127506500D03*
D23*
G04 #@! TO.N,Net-(MOD1-Pad10)*
G04 #@! TO.C,R5*
G36*
X195425142Y-128895174D02*
X195448803Y-128898684D01*
X195472007Y-128904496D01*
X195494529Y-128912554D01*
X195516153Y-128922782D01*
X195536670Y-128935079D01*
X195555883Y-128949329D01*
X195573607Y-128965393D01*
X195589671Y-128983117D01*
X195603921Y-129002330D01*
X195616218Y-129022847D01*
X195626446Y-129044471D01*
X195634504Y-129066993D01*
X195640316Y-129090197D01*
X195643826Y-129113858D01*
X195645000Y-129137750D01*
X195645000Y-129625250D01*
X195643826Y-129649142D01*
X195640316Y-129672803D01*
X195634504Y-129696007D01*
X195626446Y-129718529D01*
X195616218Y-129740153D01*
X195603921Y-129760670D01*
X195589671Y-129779883D01*
X195573607Y-129797607D01*
X195555883Y-129813671D01*
X195536670Y-129827921D01*
X195516153Y-129840218D01*
X195494529Y-129850446D01*
X195472007Y-129858504D01*
X195448803Y-129864316D01*
X195425142Y-129867826D01*
X195401250Y-129869000D01*
X194488750Y-129869000D01*
X194464858Y-129867826D01*
X194441197Y-129864316D01*
X194417993Y-129858504D01*
X194395471Y-129850446D01*
X194373847Y-129840218D01*
X194353330Y-129827921D01*
X194334117Y-129813671D01*
X194316393Y-129797607D01*
X194300329Y-129779883D01*
X194286079Y-129760670D01*
X194273782Y-129740153D01*
X194263554Y-129718529D01*
X194255496Y-129696007D01*
X194249684Y-129672803D01*
X194246174Y-129649142D01*
X194245000Y-129625250D01*
X194245000Y-129137750D01*
X194246174Y-129113858D01*
X194249684Y-129090197D01*
X194255496Y-129066993D01*
X194263554Y-129044471D01*
X194273782Y-129022847D01*
X194286079Y-129002330D01*
X194300329Y-128983117D01*
X194316393Y-128965393D01*
X194334117Y-128949329D01*
X194353330Y-128935079D01*
X194373847Y-128922782D01*
X194395471Y-128912554D01*
X194417993Y-128904496D01*
X194441197Y-128898684D01*
X194464858Y-128895174D01*
X194488750Y-128894000D01*
X195401250Y-128894000D01*
X195425142Y-128895174D01*
X195425142Y-128895174D01*
G37*
D24*
G04 #@! TD*
G04 #@! TO.P,R5,2*
G04 #@! TO.N,Net-(MOD1-Pad10)*
X194945000Y-129381500D03*
D25*
G04 #@! TO.N,/GND*
X182372000Y-135128000D03*
X179843000Y-119888000D03*
X163576000Y-134874000D03*
X167640000Y-129540000D03*
X174625000Y-122555000D03*
X166370000Y-127000000D03*
X202565000Y-127000000D03*
X196342000Y-127000000D03*
X191262000Y-130664000D03*
G04 #@! TD*
D26*
G04 #@! TO.N,/+5V*
X171430000Y-125095000D02*
X171430000Y-120416000D01*
X171430000Y-120416000D02*
X171450000Y-120396000D01*
X177546000Y-126760000D02*
X177546000Y-121412000D01*
X177546000Y-121412000D02*
X174752000Y-118618000D01*
X180365000Y-126760000D02*
X177546000Y-126760000D01*
X177546000Y-126760000D02*
X177165000Y-126760000D01*
X177165000Y-126760000D02*
X174845000Y-126760000D01*
D27*
X174845000Y-126760000D02*
X174625000Y-126980000D01*
X171530000Y-128590000D02*
X171530000Y-125195000D01*
X171530000Y-125195000D02*
X171430000Y-125095000D01*
X174625000Y-126980000D02*
X174625000Y-127635000D01*
D28*
X175260000Y-116205000D02*
X175188001Y-116276999D01*
D26*
X175895000Y-115570000D02*
X175260000Y-116205000D01*
X193675000Y-115570000D02*
X175895000Y-115570000D01*
X195200000Y-118595000D02*
X194945000Y-118340000D01*
X195200000Y-118745000D02*
X195200000Y-118595000D01*
X194945000Y-118340000D02*
X194945000Y-116840000D01*
X194945000Y-116840000D02*
X193675000Y-115570000D01*
D27*
G04 #@! TO.N,/VCC*
X208788000Y-142494000D02*
X207518000Y-142494000D01*
X208788000Y-136398000D02*
X208788000Y-142494000D01*
X207518000Y-136398000D02*
X208788000Y-136398000D01*
X204468000Y-134208000D02*
X205428000Y-134208000D01*
X205428000Y-134208000D02*
X207518000Y-136298000D01*
X207518000Y-136298000D02*
X207518000Y-136398000D01*
X168830000Y-128590000D02*
X167215000Y-128590000D01*
X167215000Y-128590000D02*
X165100000Y-130705000D01*
X165100000Y-130705000D02*
X165100000Y-130830000D01*
X174625000Y-129540000D02*
X182880000Y-129540000D01*
X172974000Y-129540000D02*
X174625000Y-129540000D01*
X171530000Y-129540000D02*
X172974000Y-129540000D01*
X169926000Y-131826000D02*
X169926000Y-128778000D01*
X172974000Y-129540000D02*
X172974000Y-131826000D01*
X172974000Y-131826000D02*
X169926000Y-131826000D01*
D26*
X180365000Y-124460000D02*
X186665000Y-124460000D01*
X188468000Y-126263000D02*
X186665000Y-124460000D01*
D27*
X169926000Y-128778000D02*
X169738000Y-128590000D01*
X169738000Y-128590000D02*
X168830000Y-128590000D01*
D29*
X204724000Y-133952000D02*
X204468000Y-134208000D01*
X204724000Y-129540000D02*
X204724000Y-133952000D01*
D26*
X180808000Y-118110000D02*
X186665000Y-118110000D01*
X186665000Y-118110000D02*
X186665000Y-124460000D01*
X186665000Y-117602000D02*
X186665000Y-118110000D01*
X196850000Y-120650000D02*
X189230000Y-120650000D01*
X196850000Y-116840000D02*
X196850000Y-120650000D01*
X207645000Y-129540000D02*
X209282990Y-127902010D01*
X204724000Y-129540000D02*
X207645000Y-129540000D01*
X209282990Y-116840000D02*
X196850000Y-116840000D01*
X209282990Y-127902010D02*
X209282990Y-125730000D01*
X209282990Y-125730000D02*
X209282990Y-116840000D01*
D27*
X209028990Y-125476000D02*
X209282990Y-125730000D01*
D30*
X189255000Y-125476000D02*
X188468000Y-126263000D01*
X196411000Y-125476000D02*
X189255000Y-125476000D01*
X197220000Y-126285000D02*
X196411000Y-125476000D01*
X198120000Y-126285000D02*
X197220000Y-126285000D01*
D31*
X185928000Y-134206000D02*
X185928000Y-132588000D01*
D26*
G04 #@! TO.N,/GND*
X182372000Y-138135076D02*
X182372000Y-135128000D01*
X182292000Y-139700000D02*
X182292000Y-138215076D01*
X182292000Y-138215076D02*
X182372000Y-138135076D01*
X188468000Y-134208000D02*
X188368000Y-134208000D01*
D27*
X182876000Y-139700000D02*
X182292000Y-139700000D01*
D26*
X180365000Y-122160000D02*
X180365000Y-120410000D01*
X180365000Y-120410000D02*
X179843000Y-119888000D01*
X165100000Y-133350000D02*
X163576000Y-134874000D01*
X165100000Y-133330000D02*
X165100000Y-133350000D01*
D27*
X168830000Y-129540000D02*
X167640000Y-129540000D01*
D26*
X174625000Y-124480000D02*
X174625000Y-122555000D01*
D27*
X167930000Y-125095000D02*
X166370000Y-126655000D01*
X168930000Y-125095000D02*
X167930000Y-125095000D01*
X166370000Y-126655000D02*
X166370000Y-127000000D01*
X203849000Y-127040000D02*
X203809000Y-127000000D01*
D32*
X204724000Y-127040000D02*
X203849000Y-127040000D01*
X203809000Y-127000000D02*
X202565000Y-127000000D01*
D27*
X178308000Y-118110000D02*
X178308000Y-118353000D01*
D26*
X179578000Y-119888000D02*
X179843000Y-119888000D01*
X178308000Y-118618000D02*
X179578000Y-119888000D01*
X178308000Y-118353000D02*
X178308000Y-118618000D01*
D27*
X196248000Y-127094000D02*
X196342000Y-127000000D01*
X194945000Y-127094000D02*
X196248000Y-127094000D01*
D26*
X191262000Y-132080000D02*
X191262000Y-130664000D01*
X189134000Y-134208000D02*
X191262000Y-132080000D01*
X188468000Y-134208000D02*
X189134000Y-134208000D01*
D27*
G04 #@! TO.N,Net-(MOD1-Pad1)*
X207518000Y-145194000D02*
X207518000Y-146194000D01*
X207518000Y-146194000D02*
X205504000Y-148208000D01*
X205504000Y-148208000D02*
X205318000Y-148208000D01*
X205318000Y-148208000D02*
X204468000Y-148208000D01*
X160705800Y-142269200D02*
X163195000Y-139780000D01*
X204468000Y-148208000D02*
X204468000Y-148958000D01*
X204468000Y-148958000D02*
X203566000Y-149860000D01*
X203566000Y-149860000D02*
X160705800Y-149860000D01*
X160705800Y-149860000D02*
X160705800Y-142269200D01*
G04 #@! TO.N,Net-(MOD1-Pad3)*
X205994000Y-139722000D02*
X205994000Y-142782000D01*
X205994000Y-142782000D02*
X204568000Y-144208000D01*
X204568000Y-144208000D02*
X204468000Y-144208000D01*
X207518000Y-139098000D02*
X206618000Y-139098000D01*
X206618000Y-139098000D02*
X205994000Y-139722000D01*
G04 #@! TO.N,/DATA*
X175437800Y-148945600D02*
X172643800Y-146151600D01*
X183159400Y-148945600D02*
X175437800Y-148945600D01*
X188468000Y-142208000D02*
X187618000Y-142208000D01*
X168830000Y-134209800D02*
X168830000Y-130490000D01*
X187618000Y-142208000D02*
X186690000Y-143136000D01*
X172643800Y-146151600D02*
X172643800Y-138023600D01*
X186690000Y-143136000D02*
X186690000Y-145415000D01*
X172643800Y-138023600D02*
X168830000Y-134209800D01*
X186690000Y-145415000D02*
X183159400Y-148945600D01*
G04 #@! TO.N,Net-(MOD1-Pad10)*
X188468000Y-136208000D02*
X188929000Y-136208000D01*
X194388763Y-131366237D02*
X194388763Y-129937737D01*
X189547000Y-136208000D02*
X194388763Y-131366237D01*
X194388763Y-129937737D02*
X194945000Y-129381500D01*
X188468000Y-136208000D02*
X189547000Y-136208000D01*
G04 #@! TO.N,Net-(MOD1-Pad11)*
X189318000Y-138208000D02*
X188468000Y-138208000D01*
X189817000Y-138208000D02*
X189318000Y-138208000D01*
X198120000Y-129905000D02*
X189817000Y-138208000D01*
X198120000Y-128905000D02*
X198120000Y-129905000D01*
G04 #@! TO.N,/IO0*
X178347076Y-142240000D02*
X186336000Y-142240000D01*
X186336000Y-142240000D02*
X188368000Y-140208000D01*
X188368000Y-140208000D02*
X188468000Y-140208000D01*
X177292000Y-139700000D02*
X177292000Y-141184924D01*
X177292000Y-141184924D02*
X178347076Y-142240000D01*
X185928000Y-137906000D02*
X185928000Y-136906000D01*
X187618000Y-140208000D02*
X185928000Y-138518000D01*
X185928000Y-138518000D02*
X185928000Y-137906000D01*
X188468000Y-140208000D02*
X187618000Y-140208000D01*
G04 #@! TO.N,Net-(MOD1-Pad15)*
X188468000Y-146208000D02*
X189580000Y-146208000D01*
X189580000Y-146208000D02*
X200152000Y-135636000D01*
X201930000Y-123952000D02*
X201930000Y-123190000D01*
X200152000Y-135636000D02*
X200152000Y-125730000D01*
X200152000Y-125730000D02*
X201930000Y-123952000D01*
G04 #@! TO.N,Net-(MOD1-Pad16)*
X204470000Y-123342400D02*
X204470000Y-123190000D01*
X188468000Y-148208000D02*
X189104000Y-148208000D01*
X189104000Y-148208000D02*
X201422000Y-135890000D01*
X201422000Y-135890000D02*
X201422000Y-126390400D01*
X201422000Y-126390400D02*
X204470000Y-123342400D01*
G04 #@! TO.N,/5V_DATA*
X163068000Y-130810000D02*
X162052000Y-131826000D01*
X162052000Y-131826000D02*
X160528000Y-131826000D01*
X163068000Y-129438400D02*
X163068000Y-130810000D01*
X166116000Y-128524000D02*
X163982400Y-128524000D01*
X163982400Y-128524000D02*
X163068000Y-129438400D01*
X171530000Y-130490000D02*
X170500000Y-130490000D01*
X170500000Y-130490000D02*
X170434000Y-130424000D01*
X170434000Y-130424000D02*
X170434000Y-126746000D01*
X170434000Y-126746000D02*
X167894000Y-126746000D01*
X167894000Y-126746000D02*
X166116000Y-128524000D01*
D26*
G04 #@! TO.N,/FTDI_5V*
X199325000Y-123125000D02*
X199390000Y-123190000D01*
X199200000Y-118745000D02*
X198500000Y-118745000D01*
X199390000Y-118935000D02*
X199200000Y-118745000D01*
X199390000Y-123190000D02*
X199390000Y-118935000D01*
G04 #@! TD*
D33*
G04 #@! TO.N,/VCC*
G36*
X192913000Y-121829320D02*
X192848243Y-121926235D01*
X192798960Y-122174000D01*
X192798960Y-124206000D01*
X192848243Y-124453765D01*
X192913000Y-124550680D01*
X192913000Y-127564610D01*
X187892690Y-130702304D01*
X187856600Y-130736260D01*
X187836252Y-130781443D01*
X187833000Y-130810000D01*
X187833000Y-132969000D01*
X182372000Y-132969000D01*
X182342362Y-132972507D01*
X176006975Y-134493000D01*
X170307000Y-134493000D01*
X170307000Y-131953000D01*
X172974000Y-131953000D01*
X173022601Y-131943333D01*
X173063803Y-131915803D01*
X173091333Y-131874601D01*
X173101000Y-131826000D01*
X173101000Y-129667000D01*
X182320446Y-129667000D01*
X182369047Y-129657333D01*
X182410249Y-129629803D01*
X182437779Y-129588601D01*
X182447445Y-129540430D01*
X182489976Y-116967000D01*
X192913000Y-116967000D01*
X192913000Y-121829320D01*
X192913000Y-121829320D01*
G37*
X192913000Y-121829320D02*
X192848243Y-121926235D01*
X192798960Y-122174000D01*
X192798960Y-124206000D01*
X192848243Y-124453765D01*
X192913000Y-124550680D01*
X192913000Y-127564610D01*
X187892690Y-130702304D01*
X187856600Y-130736260D01*
X187836252Y-130781443D01*
X187833000Y-130810000D01*
X187833000Y-132969000D01*
X182372000Y-132969000D01*
X182342362Y-132972507D01*
X176006975Y-134493000D01*
X170307000Y-134493000D01*
X170307000Y-131953000D01*
X172974000Y-131953000D01*
X173022601Y-131943333D01*
X173063803Y-131915803D01*
X173091333Y-131874601D01*
X173101000Y-131826000D01*
X173101000Y-129667000D01*
X182320446Y-129667000D01*
X182369047Y-129657333D01*
X182410249Y-129629803D01*
X182437779Y-129588601D01*
X182447445Y-129540430D01*
X182489976Y-116967000D01*
X192913000Y-116967000D01*
X192913000Y-121829320D01*
G04 #@! TO.N,/+5V*
G36*
X176403000Y-119360117D02*
X172391334Y-122325262D01*
X170619762Y-123590671D01*
X170006899Y-123935407D01*
X169827294Y-123815398D01*
X169486250Y-123747560D01*
X168998750Y-123747560D01*
X168657706Y-123815398D01*
X168368584Y-124008584D01*
X168175398Y-124297706D01*
X168167980Y-124335000D01*
X168004846Y-124335000D01*
X167929999Y-124320112D01*
X167855152Y-124335000D01*
X167855148Y-124335000D01*
X167633463Y-124379096D01*
X167382071Y-124547071D01*
X167339671Y-124610527D01*
X165885530Y-126064669D01*
X165822071Y-126107071D01*
X165654096Y-126358464D01*
X165648408Y-126387057D01*
X162497737Y-128159310D01*
X162460117Y-128191563D01*
X162437704Y-128235757D01*
X162433000Y-128270000D01*
X162433000Y-129020782D01*
X162352096Y-129141864D01*
X162308000Y-129363549D01*
X162308000Y-129363553D01*
X162293112Y-129438400D01*
X162308000Y-129513247D01*
X162308001Y-130181461D01*
X162171000Y-130184996D01*
X162171000Y-129815750D01*
X162014250Y-129659000D01*
X160901000Y-129659000D01*
X160901000Y-129679000D01*
X160155000Y-129679000D01*
X160155000Y-129659000D01*
X159041750Y-129659000D01*
X158885000Y-129815750D01*
X158885000Y-130269796D01*
X158750000Y-130273280D01*
X158750000Y-128297682D01*
X158885000Y-128297682D01*
X158885000Y-128756250D01*
X159041750Y-128913000D01*
X160155000Y-128913000D01*
X160155000Y-127952150D01*
X160901000Y-127952150D01*
X160901000Y-128913000D01*
X162014250Y-128913000D01*
X162171000Y-128756250D01*
X162171000Y-128297682D01*
X162075545Y-128067233D01*
X161899167Y-127890855D01*
X161668718Y-127795400D01*
X161057750Y-127795400D01*
X160901000Y-127952150D01*
X160155000Y-127952150D01*
X159998250Y-127795400D01*
X159387282Y-127795400D01*
X159156833Y-127890855D01*
X158980455Y-128067233D01*
X158885000Y-128297682D01*
X158750000Y-128297682D01*
X158750000Y-121440341D01*
X159276000Y-121440341D01*
X159378117Y-121953717D01*
X159767111Y-122535889D01*
X160349282Y-122924883D01*
X161036000Y-123061480D01*
X161722717Y-122924883D01*
X162304889Y-122535889D01*
X162693883Y-121953718D01*
X162796000Y-121440342D01*
X162796000Y-118843658D01*
X162731422Y-118519000D01*
X165159000Y-118519000D01*
X165159000Y-119769000D01*
X165900951Y-119769000D01*
X165900950Y-120515000D01*
X165159000Y-120515000D01*
X165159000Y-121765000D01*
X165444619Y-122454904D01*
X165972511Y-122982990D01*
X166379821Y-123150567D01*
X166663000Y-123071325D01*
X166663000Y-122527050D01*
X166951616Y-122527050D01*
X167036000Y-122543835D01*
X167120384Y-122527050D01*
X167409000Y-122527050D01*
X167409000Y-123071325D01*
X167692179Y-123150567D01*
X168099489Y-122982990D01*
X168627381Y-122454904D01*
X168913000Y-121765000D01*
X168913000Y-120515000D01*
X168171050Y-120515000D01*
X168171050Y-119769000D01*
X168913000Y-119769000D01*
X168913000Y-118519000D01*
X168627381Y-117829096D01*
X168099489Y-117301010D01*
X167692179Y-117133433D01*
X167409000Y-117212675D01*
X167409000Y-117756950D01*
X167174679Y-117756950D01*
X167036000Y-117729365D01*
X166897320Y-117756950D01*
X166663000Y-117756950D01*
X166663000Y-117212675D01*
X166379821Y-117133433D01*
X165972511Y-117301010D01*
X165444619Y-117829096D01*
X165159000Y-118519000D01*
X162731422Y-118519000D01*
X162693883Y-118330282D01*
X162304889Y-117748111D01*
X161722718Y-117359117D01*
X161036000Y-117222520D01*
X160349283Y-117359117D01*
X159767112Y-117748111D01*
X159378118Y-118330282D01*
X159276001Y-118843658D01*
X159276000Y-121440341D01*
X158750000Y-121440341D01*
X158750000Y-115951000D01*
X176403000Y-115951000D01*
X176403000Y-119360117D01*
X176403000Y-119360117D01*
G37*
X176403000Y-119360117D02*
X172391334Y-122325262D01*
X170619762Y-123590671D01*
X170006899Y-123935407D01*
X169827294Y-123815398D01*
X169486250Y-123747560D01*
X168998750Y-123747560D01*
X168657706Y-123815398D01*
X168368584Y-124008584D01*
X168175398Y-124297706D01*
X168167980Y-124335000D01*
X168004846Y-124335000D01*
X167929999Y-124320112D01*
X167855152Y-124335000D01*
X167855148Y-124335000D01*
X167633463Y-124379096D01*
X167382071Y-124547071D01*
X167339671Y-124610527D01*
X165885530Y-126064669D01*
X165822071Y-126107071D01*
X165654096Y-126358464D01*
X165648408Y-126387057D01*
X162497737Y-128159310D01*
X162460117Y-128191563D01*
X162437704Y-128235757D01*
X162433000Y-128270000D01*
X162433000Y-129020782D01*
X162352096Y-129141864D01*
X162308000Y-129363549D01*
X162308000Y-129363553D01*
X162293112Y-129438400D01*
X162308000Y-129513247D01*
X162308001Y-130181461D01*
X162171000Y-130184996D01*
X162171000Y-129815750D01*
X162014250Y-129659000D01*
X160901000Y-129659000D01*
X160901000Y-129679000D01*
X160155000Y-129679000D01*
X160155000Y-129659000D01*
X159041750Y-129659000D01*
X158885000Y-129815750D01*
X158885000Y-130269796D01*
X158750000Y-130273280D01*
X158750000Y-128297682D01*
X158885000Y-128297682D01*
X158885000Y-128756250D01*
X159041750Y-128913000D01*
X160155000Y-128913000D01*
X160155000Y-127952150D01*
X160901000Y-127952150D01*
X160901000Y-128913000D01*
X162014250Y-128913000D01*
X162171000Y-128756250D01*
X162171000Y-128297682D01*
X162075545Y-128067233D01*
X161899167Y-127890855D01*
X161668718Y-127795400D01*
X161057750Y-127795400D01*
X160901000Y-127952150D01*
X160155000Y-127952150D01*
X159998250Y-127795400D01*
X159387282Y-127795400D01*
X159156833Y-127890855D01*
X158980455Y-128067233D01*
X158885000Y-128297682D01*
X158750000Y-128297682D01*
X158750000Y-121440341D01*
X159276000Y-121440341D01*
X159378117Y-121953717D01*
X159767111Y-122535889D01*
X160349282Y-122924883D01*
X161036000Y-123061480D01*
X161722717Y-122924883D01*
X162304889Y-122535889D01*
X162693883Y-121953718D01*
X162796000Y-121440342D01*
X162796000Y-118843658D01*
X162731422Y-118519000D01*
X165159000Y-118519000D01*
X165159000Y-119769000D01*
X165900951Y-119769000D01*
X165900950Y-120515000D01*
X165159000Y-120515000D01*
X165159000Y-121765000D01*
X165444619Y-122454904D01*
X165972511Y-122982990D01*
X166379821Y-123150567D01*
X166663000Y-123071325D01*
X166663000Y-122527050D01*
X166951616Y-122527050D01*
X167036000Y-122543835D01*
X167120384Y-122527050D01*
X167409000Y-122527050D01*
X167409000Y-123071325D01*
X167692179Y-123150567D01*
X168099489Y-122982990D01*
X168627381Y-122454904D01*
X168913000Y-121765000D01*
X168913000Y-120515000D01*
X168171050Y-120515000D01*
X168171050Y-119769000D01*
X168913000Y-119769000D01*
X168913000Y-118519000D01*
X168627381Y-117829096D01*
X168099489Y-117301010D01*
X167692179Y-117133433D01*
X167409000Y-117212675D01*
X167409000Y-117756950D01*
X167174679Y-117756950D01*
X167036000Y-117729365D01*
X166897320Y-117756950D01*
X166663000Y-117756950D01*
X166663000Y-117212675D01*
X166379821Y-117133433D01*
X165972511Y-117301010D01*
X165444619Y-117829096D01*
X165159000Y-118519000D01*
X162731422Y-118519000D01*
X162693883Y-118330282D01*
X162304889Y-117748111D01*
X161722718Y-117359117D01*
X161036000Y-117222520D01*
X160349283Y-117359117D01*
X159767112Y-117748111D01*
X159378118Y-118330282D01*
X159276001Y-118843658D01*
X159276000Y-121440341D01*
X158750000Y-121440341D01*
X158750000Y-115951000D01*
X176403000Y-115951000D01*
X176403000Y-119360117D01*
G04 #@! TD*
M02*
